{"page":1,"results":[{"adult":false,"backdrop_path":"/yDHYTfA3R0jFYba16jBB1ef8oIt.jpg","genre_ids":[28,35,878],"id":533535,"original_language":"en","original_title":"Deadpool \u0026 Wolverine","overview":"A listless Wade Wilson toils away in civilian life with his days as the morally flexible mercenary, Deadpool, behind him. But when his homeworld faces an existential threat, Wade must reluctantly suit-up again with an even more reluctant Wolverine.","popularity":2392.159,"poster_path":"/8cdWjvZQUExUUTzyp4t6EDMubfO.jpg","release_date":"2024-07-24","title":"Deadpool \u0026 Wolverine","video":false,"vote_average":7.71,"vote_count":2822},{"adult":false,"backdrop_path":"/mKOBdgaEFguADkJhfFslY7TYxIh.jpg","genre_ids":[28,878,35,12,53],"id":365177,"original_language":"en","original_title":"Borderlands","overview":"Returning to her home planet, an infamous bounty hunter forms an unexpected alliance with a team of unlikely heroes. Together, they battle monsters and dangerous bandits to protect a young girl who holds the key to unimaginable power.","popularity":2172.791,"poster_path":"/865DntZzOdX6rLMd405R0nFkLmL.jpg","release_date":"2024-08-07","title":"Borderlands","video":false,"vote_average":5.867,"vote_count":464},{"adult":false,"backdrop_path":"/18wozP6NjPSNBSgCga5bN7yUSzl.jpg","genre_ids":[35,14,27],"id":917496,"original_language":"en","original_title":"Beetlejuice Beetlejuice","overview":"After a family tragedy, three generations of the Deetz family return home to Winter River. Still haunted by Beetlejuice, Lydia's life is turned upside down when her teenage daughter, Astrid, accidentally opens the portal to the Afterlife.","popularity":1462.87,"poster_path":"/kKgQzkUCnQmeTPkyIwHly2t6ZFI.jpg","release_date":"2024-09-04","title":"Beetlejuice Beetlejuice","video":false,"vote_average":7.176,"vote_count":349},{"adult":false,"backdrop_path":"/stKGOm8UyhuLPR9sZLjs5AkmncA.jpg","genre_ids":[16,10751,12,35],"id":1022789,"original_language":"en","original_title":"Inside Out 2","overview":"Teenager Riley's mind headquarters is undergoing a sudden demolition to make room for something entirely unexpected: new Emotions! Joy, Sadness, Anger, Fear and Disgust, who’ve long been running a successful operation by all accounts, aren’t sure how to feel when Anxiety shows up. And it looks like she’s not alone.","popularity":1394.724,"poster_path":"/vpnVM9B6NMmQpWeZvzLvDESb2QY.jpg","release_date":"2024-06-11","title":"Inside Out 2","video":false,"vote_average":7.7,"vote_count":3493},{"adult":false,"backdrop_path":"/lgkPzcOSnTvjeMnuFzozRO5HHw1.jpg","genre_ids":[16,10751,35,28],"id":519182,"original_language":"en","original_title":"Despicable Me 4","overview":"Gru and Lucy and their girls—Margo, Edith and Agnes—welcome a new member to the Gru family, Gru Jr., who is intent on tormenting his dad. Gru also faces a new nemesis in Maxime Le Mal and his femme fatale girlfriend Valentina, forcing the family to go on the run.","popularity":1109.442,"poster_path":"/wWba3TaojhK7NdycRhoQpsG0FaH.jpg","release_date":"2024-06-20","title":"Despicable Me 4","video":false,"vote_average":7.184,"vote_count":1543},{"adult":false,"backdrop_path":"/rwakNepsh0dXVcTtWKUVbDsSYYZ.jpg","genre_ids":[28,80,53,35],"id":573435,"original_language":"en","original_title":"Bad Boys: Ride or Die","overview":"After their late former Captain is framed, Lowrey and Burnett try to clear his name, only to end up on the run themselves.","popularity":1106.46,"poster_path":"/oGythE98MYleE6mZlGs5oBGkux1.jpg","release_date":"2024-06-05","title":"Bad Boys: Ride or Die","video":false,"vote_average":7.553,"vote_count":1892},{"adult":false,"backdrop_path":"/tCQfubckzzcuCbsGugkpLhfjS5z.jpg","genre_ids":[28,53,80],"id":970347,"original_language":"en","original_title":"The Killer","overview":"Zee is a feared contract killer known as \"the Queen of the Dead,\" but when she refuses to murder a young blind woman, she finds herself hunted both by criminal colleagues and a determined police detective.","popularity":984.321,"poster_path":"/6PCnxKZZIVRanWb710pNpYVkCSw.jpg","release_date":"2024-08-22","title":"The Killer","video":false,"vote_average":6.533,"vote_count":183},{"adult":false,"backdrop_path":"/9juRmk8QjcsUcbrevVu5t8VZy5G.jpg","genre_ids":[28,12,80,53],"id":923667,"original_language":"cn","original_title":"九龍城寨之圍城","overview":"Set in the 1980s, troubled youth Chan Lok-kwun accidentally enters the Walled City, discovers the order amidst its chaos, and learns important life lessons along the way. In the Walled City, he becomes close friends with Shin, Twelfth Master and AV. Under the leadership of Cyclone, they resist against the invasion of villain Mr. Big in a series of fierce battles. Together, they vow to protect the safe haven that is Kowloon Walled City.","popularity":918.486,"poster_path":"/PywbVPeIhBFc33QXktnhMaysmL.jpg","release_date":"2024-04-23","title":"Twilight of the Warriors: Walled In","video":false,"vote_average":6.7,"vote_count":137},{"adult":false,"backdrop_path":"/yRKyJJYIzfeiVDHBe4LXguPQCvD.jpg","genre_ids":[14,35],"id":4011,"original_language":"en","original_title":"Beetlejuice","overview":"A newly dead New England couple seeks help from a deranged demon exorcist to scare an affluent New York family out of their home.","popularity":837.234,"poster_path":"/nnl6OWkyPpuMm595hmAxNW3rZFn.jpg","release_date":"1988-03-30","title":"Beetlejuice","video":false,"vote_average":7.378,"vote_count":6941},{"adult":false,"backdrop_path":"/tbgIhYwQ5IAgNaFU1SBBxxNXCmm.jpg","genre_ids":[80,28,53],"id":646097,"original_language":"en","original_title":"Rebel Ridge","overview":"A former Marine confronts corruption in a small town when local law enforcement unjustly seizes the bag of cash he needs to post his cousin's bail.","popularity":1163.687,"poster_path":"/xEt2GSz9z5rSVpIHMiGdtf0czyf.jpg","release_date":"2024-08-27","title":"Rebel Ridge","video":false,"vote_average":6.883,"vote_count":337},{"adult":false,"backdrop_path":"/7aPrv2HFssWcOtpig5G3HEVk3uS.jpg","genre_ids":[28,12,53],"id":718821,"original_language":"en","original_title":"Twisters","overview":"As storm season intensifies, the paths of former storm chaser Kate Carter and reckless social-media superstar Tyler Owens collide when terrifying phenomena never seen before are unleashed. The pair and their competing teams find themselves squarely in the paths of multiple storm systems converging over central Oklahoma in the fight of their lives.","popularity":729.232,"poster_path":"/pjnD08FlMAIXsfOLKQbvmO0f0MD.jpg","release_date":"2024-07-10","title":"Twisters","video":false,"vote_average":6.977,"vote_count":1343},{"adult":false,"backdrop_path":"/9BQqngPfwpeAfK7c2H3cwIFWIVR.jpg","genre_ids":[10749,18],"id":1079091,"original_language":"en","original_title":"It Ends with Us","overview":"When a woman's first love suddenly reenters her life, her relationship with a charming, but abusive neurosurgeon is upended, and she realizes she must learn to rely on her own strength to make an impossible choice for her future.","popularity":645.612,"poster_path":"/4TzwDWpLmb9bWJjlN3iBUdvgarw.jpg","release_date":"2024-08-07","title":"It Ends with Us","video":false,"vote_average":6.7,"vote_count":283},{"adult":false,"backdrop_path":"/4ft6TR9wA6bra0RLL6G7JFDQ5t1.jpg","genre_ids":[28,35],"id":704239,"original_language":"en","original_title":"The Union","overview":"A New Jersey construction worker goes from regular guy to aspiring spy when his long-lost high school sweetheart recruits him for an espionage mission.","popularity":631.432,"poster_path":"/d9CTnTHip1RbVi2OQbA2LJJQAGI.jpg","release_date":"2024-08-15","title":"The Union","video":false,"vote_average":6.242,"vote_count":617},{"adult":false,"backdrop_path":"/p5kpFS0P3lIwzwzHBOULQovNWyj.jpg","genre_ids":[80,53,27,9648],"id":1032823,"original_language":"en","original_title":"Trap","overview":"A father and teen daughter attend a pop concert, where they realize they're at the center of a dark and sinister event.","popularity":587.28,"poster_path":"/jwoaKYVqPgYemFpaANL941EF94R.jpg","release_date":"2024-07-31","title":"Trap","video":false,"vote_average":6.512,"vote_count":1005},{"adult":false,"backdrop_path":"/x2thJwMJ6oGlhn7UC4vSwHltEw0.jpg","genre_ids":[28,53,10770],"id":1115396,"original_language":"en","original_title":"Hunting Games","overview":"When a group of ex-military members is hired to retrieve a lost bag of stolen money, their mission becomes more difficult after a lone hunter finds the bag first.","popularity":679.885,"poster_path":"/xVbEJzdMxIQqpuLgla0hU8qr9mt.jpg","release_date":"2023-05-12","title":"Hunting Games","video":false,"vote_average":4.2,"vote_count":4},{"adult":false,"backdrop_path":"/bxwKC4qAbceMgHU1xCCTBK1eYdn.jpg","genre_ids":[28,53,80],"id":5492,"original_language":"en","original_title":"Gunner","overview":"While on a camping trip in order to reconnect, war veteran Colonel Lee Gunner must save his two sons from a gang of violent bikers when they're kidnapped after accidentally stumbling upon to a massive drug operation.","popularity":665.631,"poster_path":"/eEkAY5veAnwxUOOlpF62KawkFO9.jpg","release_date":"2024-08-16","title":"Gunner","video":false,"vote_average":5.4,"vote_count":75},{"adult":false,"backdrop_path":"/9SSEUrSqhljBMzRe4aBTh17rUaC.jpg","genre_ids":[27,878],"id":945961,"original_language":"en","original_title":"Alien: Romulus","overview":"While scavenging the deep ends of a derelict space station, a group of young space colonizers come face to face with the most terrifying life form in the universe.","popularity":629.787,"poster_path":"/b33nnKl1GSFbao4l3fZDDqsMx0F.jpg","release_date":"2024-08-13","title":"Alien: Romulus","video":false,"vote_average":7.107,"vote_count":964},{"adult":false,"backdrop_path":"/okVLmXL5y18dfN2R4ufMZEGaeCd.jpg","genre_ids":[28,80],"id":1160018,"original_language":"hi","original_title":"किल","overview":"When an army commando finds out his true love is engaged against her will, he boards a New Dehli-bound train in a daring quest to derail the arranged marriage. But when a gang of knife-wielding thieves begin to terrorize innocent passengers on his train, the commando takes them on himself in a death-defying kill-spree to save those around him — turning what should have been a typical commute into an adrenaline-fueled thrill ride.","popularity":622.165,"poster_path":"/m2zXTuNPkywdYLyWlVyJZW2QOJH.jpg","release_date":"2024-07-03","title":"Kill","video":false,"vote_average":6.79,"vote_count":131},{"adult":false,"backdrop_path":"/qkEnklEGDFy4TRVhuHFn2DI2BP6.jpg","genre_ids":[27,53],"id":930600,"original_language":"en","original_title":"The Deliverance","overview":"Ebony Jackson, a struggling single mother fighting her personal demons, moves her family into a new home for a fresh start. But when strange occurrences inside the home raise the suspicions of Child Protective Services and threaten to tear the family apart, Ebony soon finds herself locked in a battle for her life and the souls of her children.","popularity":559.481,"poster_path":"/og1FteMFRInoQnlZeWqEn8XpXHh.jpg","release_date":"2024-08-16","title":"The Deliverance","video":false,"vote_average":6.3,"vote_count":260},{"adult":false,"backdrop_path":"/kwzNUM4yZ26XuNAPSyaWwJeWRP4.jpg","genre_ids":[28,35,14],"id":950526,"original_language":"pt","original_title":"O Mestre da Fumaça","overview":"The journey of Gabriel and Daniel, two brothers cursed by the Chinese mafia with its feared Three Generations Revenge, who have already reaped the life of their grandfather and their father. To survive, one of the brothers must learn the Smoke Style secrets, a little known Cannabis martial art, taught by a single master, high up in the mountains.","popularity":509.121,"poster_path":"/mg6YkwftQOJjpT2ygYlCi11LWeC.jpg","release_date":"2023-05-18","title":"The Smoke Master","video":false,"vote_average":5.3,"vote_count":11}],"total_pages":45995,"total_results":919897}
{"page":2,"results":[{"adult":false,"backdrop_path":"/6ToGkmqn0KG0UGGGUAC1Ww0e5CM.jpg","genre_ids":[80,27,53],"id":1226578,"original_language":"en","original_title":"Longlegs","overview":"FBI Agent Lee Harker is assigned to an unsolved serial killer case that takes an unexpected turn, revealing evidence of the occult. Harker discovers a personal connection to the killer and must stop him before he strikes again.","popularity":513.766,"poster_path":"/5aj8vVGFwGVbQQs26ywhg4Zxk2L.jpg","release_date":"2024-05-31","title":"Longlegs","video":false,"vote_average":6.723,"vote_count":779},{"adult":false,"backdrop_path":"/2RVcJbWFmICRDsVxRI8F5xRmRsK.jpg","genre_ids":[27,878,53],"id":762441,"original_language":"en","original_title":"A Quiet Place: Day One","overview":"As New York City is invaded by alien creatures who hunt by sound, a woman named Sam fights to survive with her cat.","popularity":511.746,"poster_path":"/hU42CRk14JuPEdqZG3AWmagiPAP.jpg","release_date":"2024-06-26","title":"A Quiet Place: Day One","video":false,"vote_average":6.804,"vote_count":1705},{"adult":false,"backdrop_path":"/1wP1phHo2CROOqzv7Azs0MT5esU.jpg","genre_ids":[16,35,10751,12,28],"id":748783,"original_language":"en","original_title":"The Garfield Movie","overview":"Garfield, the world-famous, Monday-hating, lasagna-loving indoor cat, is about to have a wild outdoor adventure! After an unexpected reunion with his long-lost father – scruffy street cat Vic – Garfield and his canine friend Odie are forced from their perfectly pampered life into joining Vic in a hilarious, high-stakes heist.","popularity":510.41,"poster_path":"/p6AbOJvMQhBmffd0PIv0u8ghWeY.jpg","release_date":"2024-04-30","title":"The Garfield Movie","video":false,"vote_average":7.12,"vote_count":905},{"adult":false,"backdrop_path":"/kwzNUM4yZ26XuNAPSyaWwJeWRP4.jpg","genre_ids":[28,35,14],"id":950526,"original_language":"pt","original_title":"O Mestre da Fumaça","overview":"The journey of Gabriel and Daniel, two brothers cursed by the Chinese mafia with its feared Three Generations Revenge, who have already reaped the life of their grandfather and their father. To survive, one of the brothers must learn the Smoke Style secrets, a little known Cannabis martial art, taught by a single master, high up in the mountains.","popularity":509.121,"poster_path":"/mg6YkwftQOJjpT2ygYlCi11LWeC.jpg","release_date":"2023-05-18","title":"The Smoke Master","video":false,"vote_average":5.3,"vote_count":11},{"adult":false,"backdrop_path":"/7mQ13AV4qd6A43XxXfSoyYQMzhh.jpg","genre_ids":[35,878],"id":1094138,"original_language":"en","original_title":"Jackpot!","overview":"In the near future, a 'Grand Lottery' has been established - the catch: kill the winner before sundown to legally claim their multi-billion dollar jackpot. When Katie Kim mistakenly finds herself with the winning ticket, she reluctantly joins forces with amateur lottery protection agent Noel Cassidy who must get her to sundown in exchange for a piece of her prize.","popularity":505.605,"poster_path":"/fOsamTFIyGxjw1jLSKdZYxQBJOT.jpg","release_date":"2024-08-13","title":"Jackpot!","video":false,"vote_average":6.374,"vote_count":443},{"adult":false,"backdrop_path":"/vJk9DOLgP23jO5mBnPHE93MFgYu.jpg","genre_ids":[12,10751,14,35],"id":826510,"original_language":"en","original_title":"Harold and the Purple Crayon","overview":"Inside of his book, adventurous Harold can make anything come to life simply by drawing it. After he grows up and draws himself off the book's pages and into the physical world, Harold finds he has a lot to learn about real life.","popularity":451.301,"poster_path":"/dEsuQOZwdaFAVL26RjgjwGl9j7m.jpg","release_date":"2024-07-31","title":"Harold and the Purple Crayon","video":false,"vote_average":6.991,"vote_count":106},{"adult":false,"backdrop_path":"/qwK9soQmmJ7kRdjLZVXblw3g7AQ.jpg","genre_ids":[28,12,53,80],"id":7451,"original_language":"en","original_title":"xXx","overview":"Xander Cage is your standard adrenaline junkie with no fear and a lousy attitude. When the US Government \"recruits\" him to go on a mission, he's not exactly thrilled. His mission: to gather information on an organization that may just be planning the destruction of the world, led by the nihilistic Yorgi.","popularity":494.953,"poster_path":"/xeEw3eLeSFmJgXZzmF2Efww0q3s.jpg","release_date":"2002-08-09","title":"xXx","video":false,"vote_average":5.936,"vote_count":4180},{"adult":false,"backdrop_path":"/orTQxcx2aoNpx1DIKTjBzpzvzd0.jpg","genre_ids":[27,14],"id":1130053,"original_language":"en","original_title":"Cinderella's Curse","overview":"Desperate Cinderella summons her fairy godmother from an ancient flesh-bound book, seeking revenge on her evil stepmother and stepsisters who abuse and torment her daily.","popularity":446.66,"poster_path":"/xegGyjYdCcF9X1FWpfw1O1LcFnZ.jpg","release_date":"2024-05-31","title":"Cinderella's Curse","video":false,"vote_average":4.6,"vote_count":19},{"adult":false,"backdrop_path":"/rSRA1p4e3laAAJflzdgtqNlx27Y.jpg","genre_ids":[28],"id":1049574,"original_language":"en","original_title":"Darkness of Man","overview":"Russell Hatch, an Interpol operative who takes on the role of father figure to Jayden, the son of an informant killed in a routine raid gone wrong. Years later, Hatch finds himself protecting Jayden and his grandfather from a group of merciless gangs in an all-out turf war, stopping at nothing to protect Jayden and fight anyone getting in his way.","popularity":455.356,"poster_path":"/fzmQ7mMYlBE8q459F6x9BAGgmj9.jpg","release_date":"2024-05-07","title":"Darkness of Man","video":false,"vote_average":6.6,"vote_count":118},{"adult":false,"backdrop_path":"/dNkLpb8aWhYo5mNoxkgaDkQeFxq.jpg","genre_ids":[878,12,28],"id":653346,"original_language":"en","original_title":"Kingdom of the Planet of the Apes","overview":"Several generations following Caesar's reign, apes – now the dominant species – live harmoniously while humans have been reduced to living in the shadows. As a new tyrannical ape leader builds his empire, one young ape undertakes a harrowing journey that will cause him to question all he's known about the past and to make choices that will define a future for apes and humans alike.","popularity":445.434,"poster_path":"/gKkl37BQuKTanygYQG1pyYgLVgf.jpg","release_date":"2024-05-08","title":"Kingdom of the Planet of the Apes","video":false,"vote_average":7.1,"vote_count":2825},{"adult":false,"backdrop_path":"/sqfam7wEpmyG9Fx0AdVQYrLcIfy.jpg","genre_ids":[53,80,18],"id":1298238,"original_language":"es","original_title":"Príncipes salvajes","overview":"A group of wealthy teenagers commit crimes that escalate from petty mischief to dangerous plots, causing chaotic consequences — but not for themselves.","popularity":460.747,"poster_path":"/iEe9RODlNgobupiksZ2vE4TZwUg.jpg","release_date":"2024-08-27","title":"Untamed Royals","video":false,"vote_average":6.1,"vote_count":30},{"adult":false,"backdrop_path":"/n3JeGELHa9V6k9mL81ItMxWLSS6.jpg","genre_ids":[28,53],"id":1129598,"original_language":"en","original_title":"Prey","overview":"A young couple is compelled to leave their Christian missionary station in the Kalahari Desert after being threatened with death by an extremist militant gang. After crashing their aircraft they must battle man and beast for their lives.","popularity":420.396,"poster_path":"/aOsPclgSiOqhndI2Xp2ksz2g9n6.jpg","release_date":"2024-03-15","title":"Prey","video":false,"vote_average":6.4,"vote_count":213},{"adult":false,"backdrop_path":"/wNAhuOZ3Zf84jCIlrcI6JhgmY5q.jpg","genre_ids":[28,12,878],"id":786892,"original_language":"en","original_title":"Furiosa: A Mad Max Saga","overview":"As the world fell, young Furiosa is snatched from the Green Place of Many Mothers and falls into the hands of a great Biker Horde led by the Warlord Dementus. Sweeping through the Wasteland they come across the Citadel presided over by The Immortan Joe. While the two Tyrants war for dominance, Furiosa must survive many trials as she puts together the means to find her way home.","popularity":396.212,"poster_path":"/iADOJ8Zymht2JPMoy3R7xceZprc.jpg","release_date":"2024-05-22","title":"Furiosa: A Mad Max Saga","video":false,"vote_average":7.58,"vote_count":3029},{"adult":false,"backdrop_path":"/3EIYw4aJImgsvJsb0ybhOzLk6J3.jpg","genre_ids":[28,18],"id":1066262,"original_language":"en","original_title":"The Convert","overview":"Munro, a soldier turned lay preacher, comes to New Zealand to minister to the first British colonists, but he is converted by the powerful chief Maianui to serve a different purpose.","popularity":395.748,"poster_path":"/e5ZqqPlhKstzB4geibpZh38w7Pq.jpg","release_date":"2024-03-14","title":"The Convert","video":false,"vote_average":6.183,"vote_count":71},{"adult":false,"backdrop_path":"/jnrLpUtOKelKhmGieEBcAvrsrFB.jpg","genre_ids":[27,53],"id":1114513,"original_language":"en","original_title":"Speak No Evil","overview":"When an American family is invited to spend the weekend at the idyllic country estate of a charming British family they befriended on vacation, what begins as a dream holiday soon warps into a snarled psychological nightmare.","popularity":388.358,"poster_path":"/dA4N6uWOnEMgbxXwFX7qX7adzs8.jpg","release_date":"2024-09-11","title":"Speak No Evil","video":false,"vote_average":7.188,"vote_count":24},{"adult":false,"backdrop_path":"/h9YlRHAZWOWtGonllmj6JJg1FrE.jpg","genre_ids":[28,12,16,10751,14],"id":588648,"original_language":"zh","original_title":"Dragonkeeper","overview":"Set in Han Imperial China, the plot follows the adventures of enslaved girl Ping with ancient dragon Long Danzi. Dragons had been banished from the kingdom. Ping, an orphan, finds one of the last remaining dragon eggs. Palace guards force Ping to run away in order to return the dragon egg to the ocean and save all dragons from extinction. Ping discovers that she is a true Dragonkeeper.","popularity":376.906,"poster_path":"/ggZGnJLzO3BTu7ysuuIzou3Oex5.jpg","release_date":"2024-04-11","title":"Dragonkeeper","video":false,"vote_average":7.222,"vote_count":88},{"adult":false,"backdrop_path":"/8AGwtYlvrZWEPo9zQthVd68zxNO.jpg","genre_ids":[27],"id":1140168,"original_language":"en","original_title":"Freddy's Fridays","overview":"A detective begins to investigate a series of mysterious murders that are connected to a demonic book that brings dolls to life. As the body count begins to rise, the detective soon learns the curse of the demonic Friday and must find a way to stop it before any others disappear.","popularity":350.796,"poster_path":"/v9DxbWV7G3Np3rGzqiK3gsmIyfg.jpg","release_date":"2023-10-13","title":"Freddy's Fridays","video":false,"vote_average":2.3,"vote_count":5},{"adult":false,"backdrop_path":"/y0LhmaMYpFkIfrUlOpJYTVMH2eA.jpg","genre_ids":[18],"id":592695,"original_language":"sv","original_title":"Pleasure","overview":"19 year old Linnéa leaves her small town in Sweden and heads for Los Angeles with the aim of becoming the world's next big porn star, but the road to her goal turns out to be bumpier than she imagined.","popularity":342.898,"poster_path":"/7Z2K08J0WantJHNa0vLTOmii41l.jpg","release_date":"2021-10-08","title":"Pleasure","video":false,"vote_average":6.2,"vote_count":505},{"adult":false,"backdrop_path":"/9LsZh2O1sidMvxKuMCI9RDzdZj4.jpg","genre_ids":[53,27,80,9648],"id":1245708,"original_language":"en","original_title":"Crescent City","overview":"When a ruthless serial killer terrorizes a small Southern town, everyone becomes a suspect -- including local authorities. As the body count rises and the dark mystery deepens, the chief detective becomes haunted by the horrors of his past.","popularity":341.678,"poster_path":"/kWwIkWextuqVUvAEM9DwJfEfkKe.jpg","release_date":"2024-08-16","title":"Crescent City","video":false,"vote_average":6.054,"vote_count":37},{"adult":false,"backdrop_path":"/QflfyU07MiQXSqTUCmG9Xfq0Ws.jpg","genre_ids":[28,18,10749],"id":1281826,"original_language":"en","original_title":"One Fast Move","overview":"A dishonorably discharged soldier seeks out his estranged father to help him pursue his dream of becoming a professional motorcycle racer. While training, he meets a small-town, aspiring singer and a motorcycle shop owner who begin to break down the walls his father's absence had built up.","popularity":309.843,"poster_path":"/hdBUjfbdr1ymS0kycAT7qguOmWA.jpg","release_date":"2024-08-07","title":"One Fast Move","video":false,"vote_average":6.75,"vote_count":136}],"total_pages":45997,"total_results":919923}
